Hierarchy,Region,site,time,Vol/Issue,academic/CRM,Year,Views
3,Mesa Verde,Albert Porter Pueblo,Pueblo III,85/3,academic,2019,98
-3,Utah,Cowboy Cave and Walters Cave,Archaic,85/3,academic,2019,72
2,Southwest,Missions,Historic,85/2,academic,2019,51
2,Southwest,San Xavier del Bac,Historic,85/2,academic,2019,36
2,Southwest,San Xavier del Bac,Historic,85/2,academic,2019,83
1,Kayenta,regional,Pueblo II and III,85/1,academic,2019,121
-2,O'odham,Blackwater Village,Historic,85/1,CRM,2019,76
1,Pefo,regional,Pueblo I,85/1,academic,2019,264
-1,Casas Grandes,Calderon,600-1250,85/1,academic,2019,59
3,Paquime,Paquime,1300,84/4,academic,2019,112
-2,Sonoran,El Playa,Early Ag,84/4,academic,2019,122
2,Mogollon,Mimbres,Mimbres,84/4,academic,2019,86
1,SW CO,Sacred Ridge,Pueblo I,84/4,academic,2019,77
3,Chaco,Pueblo Bonito,Pueblo I,84/3,academic,2018,177
3,Hohokam,Tonto Basin,Classic Period,84/3,academic,2018,106
1,Mogollon,Mimbres,Postclassic,84/3,academic,2018,83
3,Chihuahua,Casas Grandes,1200-1450,84/3,academic,2018,104
1,Chuska Valley,Chuska Valley,early Pueblo,84/2,Academic,2018,81
-2,Hopi,Hopi,Early Ag,84/2,Academic,2018,114
-3,Hohokam,Falcon Landing,early Ag,84/2,CRM,2018,46
2,Mogollon,Mimbres,200-1450,84/1,academic,2018,188
1,Rio Grande,Albuquerque,1200-1550,84/1,academic,2018,175
3,Chaco,Pueblo Bonito,Pueblo I,84/1,academic,2018,205
3,Chaco,Pueblo Bonito,Pueblo I,83/4,academic,2017,346
-3,Gallina,Gallina,Pueblo III,83/4,academic,2017,74
-3,Gallina,Gallina,Pueblo III,83/4,academic,2017,70
-3,Gallina,Gallina,Pueblo III,83/4,academic,2017,90
-3,Gallina,Gallina,Pueblo III,83/4,academic,2017,72
-3,Gallina,Gallina,Pueblo III,83/4,academic,2017,93
-3,Gallina,Gallina,Pueblo III,83/4,academic,2017,96
2,Pueblo,Southwest,Historic,83/3,academic,2017,87
-2,Mogollon,Jornada,El Paso,83/3,academic,2017,104
3,Hohokam,Perry Mesa,Classic Period,83/3,academic,2017,120
2,Mogollon,Mimbres,Mimbres,83/3,academic,2017,164
1,Ancestral Pueblo,Bears Ears,Pueblo I,83/2,academic,2017,209
1,Ancestral Pueblo,SE Utah,Pueblo I,83/2,academic,2017,429
2,Hopi,Homolovi,Pueblo III,83/2,academic,2017,85
1,Ancestral Pueblo,Rock Canyon Shelter,Pueblo I,83/2,academic,2017,82
3,Chaco,Regional,Pueblo I to II,83/1,academic,2017,751
3,Chaco,Kin Hochoi,Pueblo I to II,83/1,academic,2017,84
3,Chaco,Bluff Great House,Pueblo I to II,83/1,academic,2017,107
3,Chaco,Goodman Point,Pueblo I to II,83/1,academic,2017,427
3,Chaco,Regional,Pueblo I to II,83/1,academic,2017,188
3,Chaco,North Road,Pueblo I to II,83/1,academic,2017,233
1,Rio Grande,Tewa Basin,Pueblo IV,82/4,academic,2016,237
-2,Hohokam,Tucson Basin,Early Ag,82/4,academic,2016,118
2,Hopi,Homolovi I,late prehispanic,82/3,academic,2016,121
-2,Ancestral Pueblo,Mesa Verde,Basketmaker III,82/3,academic,2016,139
2,Pueblo/Hohokam,Montezuma Castle,,82/3,CRM,2016,195
2,Pueblo,Laguna,historic,82/3,CRM,2016,92
3,Casas Grandes,76 Draw,Classic Period,82/2,academic,2016,84
1,Rio Grande,Rio Grande,historic,82/2,academic,2016,67
-2,Sonora,Jocome,historic,82/2,academic,2016,61
2,Ancestral Pueblo,Cedar Mesa,Pueblo III,82/2,academic,2016,87
3,Mesa Verde,Sand Canyon,Pueblo III,82/1,academic,2016,110
-3,Northern Arizona,Badger Springs,paleoindian,82/1,academic,2016,79
2,Mogollon,Mimbres,Pueblo II,81/3-4,academic,2016,80
2,Mogollon,Mimbres,Pueblo II,81/3-4,academic,2016,88
2,Mogollon,Mimbres,Pueblo II,81/3-4,academic,2016,88
3,Chaco,Chaco,Pueblo I,81/3-4,academic,2016,305
1,Hopi,Hopi,Pueblo IV,80/3-4,academic,2016,135
1,Pueblo,Laguna,Pueblo IV,80/3-4,CRM,2016,79
3,Hohokam,La Plaza,Classic Period,80/3-4,Academic,2016,219
2,Mesa Verde,Cedar Mesa,Pueblo III,80/3-4,Academic,2016,140
3,Spanish,Eagle Ridge Site,Historic,80/3-4,Academic,2016,56
3,US Contemporary,Antelope Wells Customs Station,Modern,80/3-4,Academic,2016,94
-2,Sonora,Ruelas Ridge,Archaic,80/2,academic,2015,119
-2,Utah,Cedar Mesa,Archaic,80/2,academic,2015,103
-3,Arizona,Coconino Plateau,Paleoindian to Archaic,80/2,academic,2015,104
2,Mogollon,Woodrow Ruin,Mimbres,80/1,academic,2015,59
2,Mesa Verde,regional,Pueblo III,80/1,academic,2015,161
-1,Western Papagueria,Las Playas,Classic Period,80/1,CRM,2015,71
